.......
----------------------------------------------------------------------
Ran 7 tests in 0.002s

OK
Name               Stmts   Miss Branch BrPart  Cover   Missing
--------------------------------------------------------------
Diplomacy.py          73      4     46      3    92%   62->55, 74-78, 82->63
TestDiplomacy.py      41      0      2      1    98%   84->exit
--------------------------------------------------------------
TOTAL                114      4     48      4    94%
