........
----------------------------------------------------------------------
Ran 8 tests in 0.000s

OK
Name                                                                     Stmts   Miss Branch BrPart  Cover   Missing
--------------------------------------------------------------------------------------------------------------------
Diplomacy.py                                                               104      0     44      0   100%
TestDiplomacy.py                                                            42      0      0      0   100%
--------------------------------------------------------------------------------------------------------------------
TOTAL                                                                      246     95     84      0    60%
