.............................
----------------------------------------------------------------------
Ran 29 tests in 0.047s

OK
Name               Stmts   Miss Branch BrPart  Cover   Missing
--------------------------------------------------------------
Diplomacy.py         133      2    100      5    97%   51->29, 135, 155, 158->180, 211->197
TestDiplomacy.py     142      0      0      0   100%
--------------------------------------------------------------
TOTAL                275      2    100      5    98%
