............
----------------------------------------------------------------------
Ran 12 tests in 0.002s

OK
Name               Stmts   Miss Branch BrPart  Cover   Missing
--------------------------------------------------------------
Diplomacy.py          80      0     52      0   100%
TestDiplomacy.py      60      0      0      0   100%
--------------------------------------------------------------
TOTAL                140      0     52      0   100%
